Lab4_RALU/verification/iverilog/tb_evidence.vcd
$date
	Wed Mar 04 23:43:03 2026
$end
$version
	Icarus Verilog
$end
$timescale
	1ps
$end
$scope module Lab4_RALU_tb_evidence $end
$var wire 4 ! REGB [3:0] $end
$var wire 4 " REGA [3:0] $end
$var wire 4 # OUTPUT_BUS [3:0] $end
$var wire 4 $ DBG_SUM [3:0] $end
$var wire 4 % DBG_SHR [3:0] $end
$var wire 4 & DBG_SHL [3:0] $end
$var wire 4 ' DBG_OR [3:0] $end
$var wire 4 ( DBG_NOT [3:0] $end
$var wire 4 ) DBG_MUXB_OUT [3:0] $end
$var wire 4 * DBG_MUXA_OUT [3:0] $end
$var wire 4 + DBG_AND [3:0] $end
$var wire 1 , Cout $end
$var reg 1 - CLK $end
$var reg 1 . Cin $end
$var reg 4 / INPUT_BUS [3:0] $end
$var reg 2 0 MSA [1:0] $end
$var reg 2 1 MSB [1:0] $end
$var reg 3 2 MSC [2:0] $end
$var integer 32 3 errors [31:0] $end
$var integer 32 4 fd [31:0] $end
$scope module dut $end
$var wire 1 - CLK $end
$var wire 1 . Cin $end
$var wire 1 , Cout $end
$var wire 4 5 DBG_AND [3:0] $end
$var wire 4 6 DBG_MUXA_OUT [3:0] $end
$var wire 4 7 DBG_MUXB_OUT [3:0] $end
$var wire 4 8 DBG_NOT [3:0] $end
$var wire 4 9 DBG_OR [3:0] $end
$var wire 4 : DBG_SHL [3:0] $end
$var wire 4 ; DBG_SHR [3:0] $end
$var wire 4 < DBG_SUM [3:0] $end
$var wire 4 = INPUT_BUS [3:0] $end
$var wire 2 > MSA [1:0] $end
$var wire 2 ? MSB [1:0] $end
$var wire 3 @ MSC [2:0] $end
$var wire 4 A OUTPUT_BUS [3:0] $end
$var wire 4 B REGA [3:0] $end
$var wire 4 C REGB [3:0] $end
$var wire 4 D fn_and [3:0] $end
$var wire 4 E fn_not [3:0] $end
$var wire 4 F fn_or [3:0] $end
$var wire 4 G fn_sum [3:0] $end
$var wire 4 H fn_shr [3:0] $end
$var wire 4 I fn_shl [3:0] $end
$var wire 1 J add_cout $end
$var reg 4 K mux_a_out [3:0] $end
$var reg 4 L mux_b_out [3:0] $end
$var reg 4 M mux_c_out [3:0] $end
$var reg 4 N reg_a [3:0] $end
$var reg 4 O reg_b [3:0] $end
$upscope $end
$scope task expect1 $end
$var reg 1 P exp $end
$var reg 1 Q got $end
$var reg 256 R name [255:0] $end
$upscope $end
$scope task expect4 $end
$var reg 4 S exp [3:0] $end
$var reg 4 T got [3:0] $end
$var reg 256 U name [255:0] $end
$upscope $end
$scope task log_state $end
$var reg 256 V tag [255:0] $end
$upscope $end
$scope task tick $end
$upscope $end
$upscope $end
$enddefinitions $end
$comment Show the parameter values. $end
$dumpall
$end
#0
$dumpvars
bx V
bx U
bx T
bx S
bx R
xQ
xP
bx O
bx N
bx M
bx L
b1010 K
xJ
bx0 I
b0xxx H
bx G
bx F
bx E
bx D
bx C
bx B
bx A
b0 @
b10 ?
b0 >
b1010 =
bx <
b0xxx ;
bx0 :
bx 9
bx 8
bx 7
b1010 6
bx 5
b10000000000000000000000000000011 4
b0 3
b0 2
b10 1
b0 0
b1010 /
0.
0-
x,
bx +
b1010 *
bx )
bx (
bx '
bx0 &
b0xxx %
bx $
bx #
bx "
bx !
$end
#5000
b1010 #
b1010 A
b1010 M
b100 &
b100 :
b100 I
b101 %
b101 ;
b101 H
b1x1x '
b1x1x 9
b1x1x F
bx0x0 +
bx0x0 5
bx0x0 D
b101 (
b101 8
b101 E
b1010 "
b1010 B
b1010 N
1-
#6000
b11 )
b11 7
b11 L
b0 1
b0 ?
b1 0
b1 >
b11 /
b11 =
#10000
0-
#15000
b1101 $
b1101 <
b1101 G
0,
0J
b1011 '
b1011 9
b1011 F
b10 +
b10 5
b10 D
b11 !
b11 C
b11 O
1-
#16000
b1000001011001100111010001100101011100100010000001101100011011110110000101100100001000000100000100111101001100000111100001000001001000000100001000111101001100000111100000110011 V
#17000
b11 #
b11 A
b11 M
b1 2
b1 @
b1010 S
b1010 T
b100110101010011010000110011000000110000001100000010000001010010010001010100011101000001 U
#18000
b101 #
b101 A
b101 M
b10 2
b10 @
b11 S
b11 T
b100110101010011010000110011000000110000001100010010000001010010010001010100011101000010 U
#19000
b10 #
b10 A
b10 M
b11 2
b11 @
b101 S
b101 T
b1001101010100110100001100110000001100010011000000100000010011100100111101010100 U
#20000
b1011 #
b1011 A
b1011 M
b100 2
b100 @
b10 S
b10 T
b1001101010100110100001100110000001100010011000100100000010000010100111001000100 U
0-
#21000
b1101 #
b1101 A
b1101 M
b101 2
b101 @
b1011 S
b1011 T
b10011010101001101000011001100010011000000110000001000000100111101010010 U
#22000
b100 #
b100 A
b100 M
b110 2
b110 @
b1101 S
b1101 T
b1001101010100110100001100110001001100000011000100100000010100110101010101001101 U
#23000
b101 #
b101 A
b101 M
b111 2
b111 @
b100 S
b100 T
b1001101010100110100001100110001001100010011000000100000010100110100100001001100 U
#24000
b1010 #
b1010 A
b1010 M
b100 *
b100 6
b100 K
b0 2
b0 @
b10 1
b10 ?
b0 0
b0 >
b100 /
b100 =
0P
0Q
b1001110011011110010110101100011011000010111001001110010011110010010000001100011011000010111001101100101 R
b101 S
b101 T
b1001101010100110100001100110001001100010011000100100000010100110100100001010010 U
#25000
b100 #
b100 A
b100 M
b111 $
b111 <
b111 G
b1000 &
b1000 :
b1000 I
b10 %
b10 ;
b10 H
b111 '
b111 9
b111 F
b0 +
b0 5
b0 D
b1011 (
b1011 8
b1011 E
b100 "
b100 B
b100 N
1-
#26000
b1010 )
b1010 7
b1010 L
b0 1
b0 ?
b1 0
b1 >
b1010 /
b1010 =
b11001110011000100100000011011000110111101100001011001000010000000110100001011010011111001000001 V
#30000
0-
#35000
b1110 $
b1110 <
b1110 G
b1110 '
b1110 9
b1110 F
b1010 !
b1010 C
b1010 O
1-
#36000
b1110 *
b1110 6
b1110 K
b1110 #
b1110 A
b1110 M
b100 2
b100 @
b10 1
b10 ?
b11 0
b11 >
b0 /
b0 =
b110011100110010001000000110110001101111011000010110010000100000010000010110001101101111011011100111001101110100001011010011111001000010 V
#40000
0-
#45000
b1000 $
b1000 <
b1000 G
1,
1J
b1100 &
b1100 :
b1100 I
b111 %
b111 ;
b111 H
b1010 +
b1010 5
b1010 D
b1 (
b1 8
b1 E
b1110 "
b1110 B
b1110 N
1-
#46000
b110 )
b110 7
b110 L
b0 2
b0 @
b0 1
b0 ?
b1 0
b1 >
b110 /
b110 =
b11001110011001100100000010000010011110000101101010000010111110001000010 V
#50000
0-
#55000
b100 $
b100 <
b100 G
b110 +
b110 5
b110 D
b110 !
b110 C
b110 O
1-
#56000
b110 *
b110 6
b110 K
b110 #
b110 A
b110 M
b11 2
b11 @
b10 1
b10 ?
b11 0
b11 >
b0 /
b0 =
b11001110011010000100000011011000110111101100001011001000010000000110110001011010011111001000010 V
#60000
0-
#65000
b1100 $
b1100 <
b1100 G
0,
0J
b11 %
b11 ;
b11 H
b110 '
b110 9
b110 F
b1001 (
b1001 8
b1001 E
b110 "
b110 B
b110 N
1-
#66000
b1100 *
b1100 6
b1100 K
b1100 #
b1100 A
b1100 M
b110 2
b110 @
b11001110011010100100000010000010011110000101101010000010010011001000010 V
#70000
0-
#75000
b1000 *
b1000 6
b1000 K
b1000 #
b1000 A
b1000 M
b10 $
b10 <
b10 G
1,
1J
b1000 &
b1000 :
b1000 I
b110 %
b110 ;
b110 H
b1110 '
b1110 9
b1110 F
b100 +
b100 5
b100 D
b11 (
b11 8
b11 E
b1100 "
b1100 B
b1100 N
1-
#76000
b1100111001101100010000001000001001111000010110101000001001111000011110000110001 V
#80000
0-
#85000
b0 *
b0 6
b0 K
b0 #
b0 A
b0 M
b1110 $
b1110 <
b1110 G
0,
0J
b0 &
b0 :
b0 I
b100 %
b100 ;
b100 H
b0 +
b0 5
b0 D
b111 (
b111 8
b111 E
b1000 "
b1000 B
b1000 N
1-
#86000
b1000 #
b1000 A
b1000 M
b11 )
b11 7
b11 L
b1000 *
b1000 6
b1000 K
b0 2
b0 @
b0 1
b0 ?
b1 0
b1 >
b11 /
b11 =
b1100111001101110010000001000001001111000010110101000001001111000011110000110001 V
#90000
0-
#95000
b1011 $
b1011 <
b1011 G
b1011 '
b1011 9
b1011 F
b11 !
b11 C
b11 O
1-
#96000
b1011 *
b1011 6
b1011 K
b1011 #
b1011 A
b1011 M
b100 2
b100 @
b10 1
b10 ?
b11 0
b11 >
b0 /
b0 =
b11001110011100000100000011011000110111101100001011001000010000000110011001011010011111001000010 V
#100000
0-
#105000
b1110 $
b1110 <
b1110 G
b110 &
b110 :
b110 I
b101 %
b101 ;
b101 H
b11 +
b11 5
b11 D
b100 (
b100 8
b100 E
b1011 "
b1011 B
b1011 N
1-
#106000
b100 *
b100 6
b100 K
b100 #
b100 A
b100 M
b10 2
b10 @
b11001110011100100100000010000010011110000101101010000010111110001000010 V
#110000
0-
#115000
b1011 *
b1011 6
b1011 K
b1011 #
b1011 A
b1011 M
b111 $
b111 <
b111 G
b1000 &
b1000 :
b1000 I
b10 %
b10 ;
b10 H
b111 '
b111 9
b111 F
b0 +
b0 5
b0 D
b1011 (
b1011 8
b1011 E
b100 "
b100 B
b100 N
1-
#116000
b10 *
b10 6
b10 K
b10 #
b10 A
b10 M
b111 2
b111 @
b11001110011000100110000001000000100000100111100001011010111111001000001 V
#120000
0-
#125000
b1 *
b1 6
b1 K
b1 #
b1 A
b1 M
b101 $
b101 <
b101 G
b100 &
b100 :
b100 I
b1 %
b1 ;
b1 H
b11 '
b11 9
b11 F
b10 +
b10 5
b10 D
b1101 (
b1101 8
b1101 E
b10 "
b10 B
b10 N
1-
#126000
b11 S
b11 T
b10001100110100101101110011000010110110000100000011001110010000001010010011001010110011101000010 U
b110011100110001001100010010000001000001001111000010110101000001001111100011111000110001 V
#130000
0-
#135000
b0 *
b0 6
b0 K
b0 #
b0 A
b0 M
b100 $
b100 <
b100 G
b10 &
b10 :
b10 I
b0 %
b0 ;
b0 H
b1 +
b1 5
b1 D
b1110 (
b1110 8
b1110 E
b1 "
b1 B
b1 N
1-
